{
  "key": "bitbucket-install-example",
  "name": "Bitbucket add-on installation UX demo",
  "description": "An example add-on for demonstrating add-on installation flow.",
  "baseUrl": "https://bitbucket-install-example.aerobatic.io/",
  "modules": {
    "oauthConsumer": {
      "clientId": "nygyQdrG3gNB2ptHBC"
    },
    "postInstallRedirect": {
      "key": "redirect",
      "url": "/index.html?username={user_username}&type={user_type}"
    }
  },
  "scopes": ["account"],
  "contexts": ["personal"]
}